counter1_directory/counter1_route.vcd
$date
	Tue Sep  7 03:25:53 2021
$end
$version
	Icarus Verilog
$end
$timescale
	1fs
$end
$scope module tb $end
$var wire 1 ! count_Pad $end
$var reg 1 " GCLK_Pad $end
$var reg 1 # en_Pad $end
$var reg 1 $ rst_Pad $end
$scope module topLevel $end
$var wire 1 " GCLK_Pad $end
$var wire 1 # en_Pad $end
$var wire 1 $ rst_Pad $end
$var wire 1 % net9_c1 $end
$var wire 1 & net9 $end
$var wire 1 ' net8_c1 $end
$var wire 1 ( net8 $end
$var wire 1 ) net7_c1 $end
$var wire 1 * net7 $end
$var wire 1 + net6_c1 $end
$var wire 1 , net5_c1 $end
$var wire 1 - net5 $end
$var wire 1 . net4 $end
$var wire 1 / net3_c1 $end
$var wire 1 0 net3 $end
$var wire 1 1 net2 $end
$var wire 1 2 net1_c1 $end
$var wire 1 3 net14 $end
$var wire 1 4 net13_c1 $end
$var wire 1 5 net13 $end
$var wire 1 6 net12_c1 $end
$var wire 1 7 net12 $end
$var wire 1 8 net11_c1 $end
$var wire 1 9 net11 $end
$var wire 1 : net10_c1 $end
$var wire 1 ; net10 $end
$var wire 1 < net1 $end
$var wire 1 = net0_c1 $end
$var wire 1 > net0 $end
$var wire 1 ! count_Pad $end
$scope module AND2T_7_n10 $end
$var wire 1 > in2 $end
$var wire 1 < in1 $end
$var wire 1 ; clkin $end
$var reg 1 ? in1_state $end
$var reg 1 @ in2_state $end
$var reg 1 / out $end
$var reg 1 A out_val $end
$scope module gPD $end
$var wire 1 B out $end
$var reg 1 C in $end
$scope module g0 $end
$var wire 1 C in $end
$var wire 1 B out $end
$upscope $end
$scope task tPD $end
$upscope $end
$upscope $end
$upscope $end
$scope module AND2T_7_n10_DFFT_8__FBL_n11 $end
$var wire 1 / in $end
$var reg 1 0 out $end
$scope module gPD $end
$var wire 1 D out $end
$var reg 1 E in $end
$scope module g0 $end
$var wire 1 E in $end
$var wire 1 D out $end
$upscope $end
$scope task tPD $end
$upscope $end
$upscope $end
$upscope $end
$scope module DFFT_8__FBL_n11 $end
$var wire 1 0 in $end
$var wire 1 5 clkin $end
$var reg 1 F in_state $end
$var reg 1 ) out $end
$var reg 1 G out_val $end
$scope module gPD $end
$var wire 1 H out $end
$var reg 1 I in $end
$scope module g0 $end
$var wire 1 I in $end
$var wire 1 H out $end
$upscope $end
$scope task tPD $end
$upscope $end
$upscope $end
$upscope $end
$scope module DFFT_8__FBL_n11_Split_9_count $end
$var wire 1 ) in $end
$var reg 1 * out $end
$scope module gPD $end
$var wire 1 J out $end
$var reg 1 K in $end
$scope module g0 $end
$var wire 1 K in $end
$var wire 1 J out $end
$upscope $end
$scope task tPD $end
$upscope $end
$upscope $end
$upscope $end
$scope module GCLK_Pad_SplitCLK_0_7 $end
$var wire 1 " in $end
$var reg 1 3 out $end
$scope module gPD $end
$var wire 1 L out $end
$var reg 1 M in $end
$scope module g0 $end
$var wire 1 M in $end
$var wire 1 L out $end
$upscope $end
$scope task tPD $end
$upscope $end
$upscope $end
$upscope $end
$scope module NOTT_5_n8 $end
$var wire 1 . in $end
$var wire 1 9 clkin $end
$var reg 1 N in_state $end
$var reg 1 = out $end
$var reg 1 O out_val $end
$scope module gPD $end
$var wire 1 P out $end
$var reg 1 Q in $end
$scope module g0 $end
$var wire 1 Q in $end
$var wire 1 P out $end
$upscope $end
$scope task tPD $end
$upscope $end
$upscope $end
$upscope $end
$scope module NOTT_5_n8_AND2T_7_n10 $end
$var wire 1 = in $end
$var reg 1 > out $end
$scope module gPD $end
$var wire 1 R out $end
$var reg 1 S in $end
$scope module g0 $end
$var wire 1 S in $end
$var wire 1 R out $end
$upscope $end
$scope task tPD $end
$upscope $end
$upscope $end
$upscope $end
$scope module SplitCLK_0_7 $end
$var wire 1 3 in $end
$var reg 1 ' out1 $end
$var reg 1 % out2 $end
$scope module gPD1 $end
$var wire 1 T out $end
$var reg 1 U in $end
$scope module g0 $end
$var wire 1 U in $end
$var wire 1 T out $end
$upscope $end
$scope task tPD $end
$upscope $end
$upscope $end
$scope module gPD2 $end
$var wire 1 V out $end
$var reg 1 W in $end
$scope module g0 $end
$var wire 1 W in $end
$var wire 1 V out $end
$upscope $end
$scope task tPD $end
$upscope $end
$upscope $end
$upscope $end
$scope module SplitCLK_0_7_SplitCLK_4_5 $end
$var wire 1 ' in $end
$var reg 1 ( out $end
$scope module gPD $end
$var wire 1 X out $end
$var reg 1 Y in $end
$scope module g0 $end
$var wire 1 Y in $end
$var wire 1 X out $end
$upscope $end
$scope task tPD $end
$upscope $end
$upscope $end
$upscope $end
$scope module SplitCLK_0_7_SplitCLK_4_6 $end
$var wire 1 % in $end
$var reg 1 & out $end
$scope module gPD $end
$var wire 1 Z out $end
$var reg 1 [ in $end
$scope module g0 $end
$var wire 1 [ in $end
$var wire 1 Z out $end
$upscope $end
$scope task tPD $end
$upscope $end
$upscope $end
$upscope $end
$scope module SplitCLK_4_5 $end
$var wire 1 ( in $end
$var reg 1 6 out1 $end
$var reg 1 4 out2 $end
$scope module gPD1 $end
$var wire 1 \ out $end
$var reg 1 ] in $end
$scope module g0 $end
$var wire 1 ] in $end
$var wire 1 \ out $end
$upscope $end
$scope task tPD $end
$upscope $end
$upscope $end
$scope module gPD2 $end
$var wire 1 ^ out $end
$var reg 1 _ in $end
$scope module g0 $end
$var wire 1 _ in $end
$var wire 1 ^ out $end
$upscope $end
$scope task tPD $end
$upscope $end
$upscope $end
$upscope $end
$scope module SplitCLK_4_5_DFFT_8__FBL_n11 $end
$var wire 1 4 in $end
$var reg 1 5 out $end
$scope module gPD $end
$var wire 1 ` out $end
$var reg 1 a in $end
$scope module g0 $end
$var wire 1 a in $end
$var wire 1 ` out $end
$upscope $end
$scope task tPD $end
$upscope $end
$upscope $end
$upscope $end
$scope module SplitCLK_4_5_XOR2T_6_n9 $end
$var wire 1 6 in $end
$var reg 1 7 out $end
$scope module gPD $end
$var wire 1 b out $end
$var reg 1 c in $end
$scope module g0 $end
$var wire 1 c in $end
$var wire 1 b out $end
$upscope $end
$scope task tPD $end
$upscope $end
$upscope $end
$upscope $end
$scope module SplitCLK_4_6 $end
$var wire 1 & in $end
$var reg 1 : out1 $end
$var reg 1 8 out2 $end
$scope module gPD1 $end
$var wire 1 d out $end
$var reg 1 e in $end
$scope module g0 $end
$var wire 1 e in $end
$var wire 1 d out $end
$upscope $end
$scope task tPD $end
$upscope $end
$upscope $end
$scope module gPD2 $end
$var wire 1 f out $end
$var reg 1 g in $end
$scope module g0 $end
$var wire 1 g in $end
$var wire 1 f out $end
$upscope $end
$scope task tPD $end
$upscope $end
$upscope $end
$upscope $end
$scope module SplitCLK_4_6_AND2T_7_n10 $end
$var wire 1 : in $end
$var reg 1 ; out $end
$scope module gPD $end
$var wire 1 h out $end
$var reg 1 i in $end
$scope module g0 $end
$var wire 1 i in $end
$var wire 1 h out $end
$upscope $end
$scope task tPD $end
$upscope $end
$upscope $end
$upscope $end
$scope module SplitCLK_4_6_NOTT_5_n8 $end
$var wire 1 8 in $end
$var reg 1 9 out $end
$scope module gPD $end
$var wire 1 j out $end
$var reg 1 k in $end
$scope module g0 $end
$var wire 1 k in $end
$var wire 1 j out $end
$upscope $end
$scope task tPD $end
$upscope $end
$upscope $end
$upscope $end
$scope module Split_9_count $end
$var wire 1 * in $end
$var reg 1 , out1 $end
$var reg 1 + out2 $end
$scope module gPD1 $end
$var wire 1 l out $end
$var reg 1 m in $end
$scope module g0 $end
$var wire 1 m in $end
$var wire 1 l out $end
$upscope $end
$scope task tPD $end
$upscope $end
$upscope $end
$scope module gPD2 $end
$var wire 1 n out $end
$var reg 1 o in $end
$scope module g0 $end
$var wire 1 o in $end
$var wire 1 n out $end
$upscope $end
$scope task tPD $end
$upscope $end
$upscope $end
$upscope $end
$scope module Split_9_count_XOR2T_6_n9 $end
$var wire 1 , in $end
$var reg 1 - out $end
$scope module gPD $end
$var wire 1 p out $end
$var reg 1 q in $end
$scope module g0 $end
$var wire 1 q in $end
$var wire 1 p out $end
$upscope $end
$scope task tPD $end
$upscope $end
$upscope $end
$upscope $end
$scope module Split_9_count_count_Pad $end
$var wire 1 + in $end
$var reg 1 ! out $end
$scope module gPD $end
$var wire 1 r out $end
$var reg 1 s in $end
$scope module g0 $end
$var wire 1 s in $end
$var wire 1 r out $end
$upscope $end
$scope task tPD $end
$upscope $end
$upscope $end
$upscope $end
$scope module XOR2T_6_n9 $end
$var wire 1 7 clkin $end
$var wire 1 - in1 $end
$var wire 1 1 in2 $end
$var reg 1 t in1_state $end
$var reg 1 u in2_state $end
$var reg 1 2 out $end
$var reg 1 v out_val $end
$scope module gPD $end
$var wire 1 w out $end
$var reg 1 x in $end
$scope module g0 $end
$var wire 1 x in $end
$var wire 1 w out $end
$upscope $end
$scope task tPD $end
$upscope $end
$upscope $end
$upscope $end
$scope module XOR2T_6_n9_AND2T_7_n10 $end
$var wire 1 2 in $end
$var reg 1 < out $end
$scope module gPD $end
$var wire 1 y out $end
$var reg 1 z in $end
$scope module g0 $end
$var wire 1 z in $end
$var wire 1 y out $end
$upscope $end
$scope task tPD $end
$upscope $end
$upscope $end
$upscope $end
$scope module en_Pad_XOR2T_6_n9 $end
$var wire 1 # in $end
$var reg 1 1 out $end
$scope module gPD $end
$var wire 1 { out $end
$var reg 1 | in $end
$scope module g0 $end
$var wire 1 | in $end
$var wire 1 { out $end
$upscope $end
$scope task tPD $end
$upscope $end
$upscope $end
$upscope $end
$scope module rst_Pad_NOTT_5_n8 $end
$var wire 1 $ in $end
$var reg 1 . out $end
$scope module gPD $end
$var wire 1 } out $end
$var reg 1 ~ in $end
$scope module g0 $end
$var wire 1 ~ in $end
$var wire 1 } out $end
$upscope $end
$scope task tPD $end
$upscope $end
$upscope $end
$upscope $end
$upscope $end
$upscope $end
$enddefinitions $end
#0
$dumpvars
0~
x}
0|
x{
0z
xy
0x
xw
0v
0u
0t
0s
xr
0q
xp
0o
xn
0m
xl
0k
xj
0i
xh
0g
xf
0e
xd
0c
xb
0a
x`
0_
x^
0]
x\
0[
xZ
0Y
xX
0W
xV
0U
xT
0S
xR
0Q
xP
0O
0N
0M
xL
0K
xJ
0I
xH
0G
0F
0E
xD
0C
xB
0A
0@
0?
0>
0=
0<
0;
0:
09
08
07
06
05
04
03
02
01
00
0/
0.
0-
0,
0+
0*
0)
0(
0'
0&
0%
0$
0#
0"
0!
$end
#500
0h
#600
0X
#700
0`
#800
0Z
#900
0D
#1100
0j
#1400
0R
#3400
0J
#3600
0b
#3700
0r
#4100
0y
#5500
0p
#5800
0w
#7100
0V
0T
0f
0d
0^
0\
0n
0l
#8300
0L
#8400
0B
#10400
0H
#11500
0{
#11900
0}
#13200
0P
#78000
1M
1"
#80000
0"
#86300
1U
1W
13
1L
#88300
03
#93400
1Y
1[
1'
1%
1T
1V
#94000
1]
1_
1(
1X
#94200
1e
1g
1&
1Z
#95400
0'
0%
#96000
0(
#96200
0&
#101100
1c
1a
16
14
1\
1^
#101300
1i
1k
1:
18
1d
1f
#101800
1C
1I
1;
15
1h
1`
#102400
1O
1Q
19
1j
#103100
06
04
#103300
0:
08
#103800
0;
05
#104400
09
#104700
1x
17
1b
#106700
07
#110200
1B
#110500
1w
#112200
1H
#115600
1S
0O
1=
1P
#117000
1@
1>
1R
#117600
0=
#119000
0>
#158000
0M
1"
#160000
0"
#166300
0U
0W
13
0L
#168300
03
#173400
0Y
0[
1'
1%
0T
0V
#174000
0]
0_
1(
0X
#174200
0e
0g
1&
0Z
#175400
0'
0%
#176000
0(
#176200
0&
#181100
0c
0a
16
14
0\
0^
#181300
0i
0k
1:
18
0d
0f
#181800
0@
0C
0I
1;
15
0h
0`
#182400
1O
0Q
19
0j
#183100
06
04
#183300
0:
08
#183800
0;
05
#184400
09
#184700
0x
17
0b
#186700
07
#190200
0B
#190500
0w
#192200
0H
#195600
0S
0O
1=
0P
#197000
1@
1>
0R
#197600
0=
#199000
0>
#238000
1M
1"
#240000
0"
#246300
1U
1W
13
1L
#248300
03
#253400
1Y
1[
1'
1%
1T
1V
#254000
1]
1_
1(
1X
#254200
1e
1g
1&
1Z
#255400
0'
0%
#256000
0(
#256200
0&
#261100
1c
1a
16
14
1\
1^
#261300
1i
1k
1:
18
1d
1f
#261800
0@
1C
1I
1;
15
1h
1`
#262400
1O
1Q
19
1j
#263100
06
04
#263300
0:
08
#263800
0;
05
#264400
09
#264700
1x
17
1b
#266700
07
#270200
1B
#270500
1w
#272200
1H
#275600
1S
0O
1=
1P
#277000
1@
1>
1R
#277600
0=
#279000
0>
#318000
0M
1"
#320000
0"
#326300
0U
0W
13
0L
#328300
03
#333400
0Y
0[
1'
1%
0T
0V
#334000
0]
0_
1(
0X
#334200
0e
0g
1&
0Z
#335400
0'
0%
#336000
0(
#336200
0&
#341100
0c
0a
16
14
0\
0^
#341300
0i
0k
1:
18
0d
0f
#341800
0@
0C
0I
1;
15
0h
0`
#342400
1O
0Q
19
0j
#343100
06
04
#343300
0:
08
#343800
0;
05
#344400
09
#344700
0x
17
0b
#346700
07
#350200
0B
#350500
0w
#352200
0H
#355600
0S
0O
1=
0P
#357000
1@
1>
0R
#357600
0=
#359000
0>
#398000
1M
1"
#400000
0"
#406300
1U
1W
13
1L
#408300
03
#413400
1Y
1[
1'
1%
1T
1V
#414000
1]
1_
1(
1X
#414200
1e
1g
1&
1Z
#415400
0'
0%
#416000
0(
#416200
0&
#421100
1c
1a
16
14
1\
1^
#421300
1i
1k
1:
18
1d
1f
#421800
0@
1C
1I
1;
15
1h
1`
#422400
1O
1Q
19
1j
#423100
06
04
#423300
0:
08
#423800
0;
05
#424400
09
#424700
1x
17
1b
#426700
07
#430200
1B
#430500
1w
#432200
1H
#435600
1S
0O
1=
1P
#437000
1@
1>
1R
#437600
0=
#439000
0>
#478000
0M
1"
#480000
0"
#486300
0U
0W
13
0L
#488300
03
#493400
0Y
0[
1'
1%
0T
0V
#494000
0]
0_
1(
0X
#494200
0e
0g
1&
0Z
#495400
0'
0%
#496000
0(
#496200
0&
#501100
0c
0a
16
14
0\
0^
#501300
0i
0k
1:
18
0d
0f
#501800
0@
0C
0I
1;
15
0h
0`
#502400
1O
0Q
19
0j
#503100
06
04
#503300
0:
08
#503800
0;
05
#504400
09
#504700
0x
17
0b
#506700
07
#510200
0B
#510500
0w
#512200
0H
#515600
0S
0O
1=
0P
#517000
1@
1>
0R
#517600
0=
#519000
0>
#558000
1M
1"
#560000
0"
#566300
1U
1W
13
1L
#568300
03
#573400
1Y
1[
1'
1%
1T
1V
#574000
1]
1_
1(
1X
#574200
1e
1g
1&
1Z
#575400
0'
0%
#576000
0(
#576200
0&
#581100
1c
1a
16
14
1\
1^
#581300
1i
1k
1:
18
1d
1f
#581800
0@
1C
1I
1;
15
1h
1`
#582400
1O
1Q
19
1j
#583100
06
04
#583300
0:
08
#583800
0;
05
#584400
09
#584700
1x
17
1b
#586700
07
#590200
1B
#590500
1w
#592200
1H
#595600
1S
0O
1=
1P
#597000
1@
1>
1R
#597600
0=
#599000
0>
#638000
0M
1"
#640000
0"
#646300
0U
0W
13
0L
#648300
03
#653400
0Y
0[
1'
1%
0T
0V
#654000
0]
0_
1(
0X
#654200
0e
0g
1&
0Z
#655400
0'
0%
#656000
0(
#656200
0&
#661100
0c
0a
16
14
0\
0^
#661300
0i
0k
1:
18
0d
0f
#661800
0@
0C
0I
1;
15
0h
0`
#662400
1O
0Q
19
0j
#663100
06
04
#663300
0:
08
#663800
0;
05
#664400
09
#664700
0x
17
0b
#666700
07
#670200
0B
#670500
0w
#672200
0H
#675600
0S
0O
1=
0P
#677000
1@
1>
0R
#677600
0=
#679000
0>
#718000
1M
1"
#720000
0"
#726300
1U
1W
13
1L
#728300
03
#733400
1Y
1[
1'
1%
1T
1V
#734000
1]
1_
1(
1X
#734200
1e
1g
1&
1Z
#735400
0'
0%
#736000
0(
#736200
0&
#741100
1c
1a
16
14
1\
1^
#741300
1i
1k
1:
18
1d
1f
#741800
0@
1C
1I
1;
15
1h
1`
#742400
1O
1Q
19
1j
#743100
06
04
#743300
0:
08
#743800
0;
05
#744400
09
#744700
1x
17
1b
#746700
07
#750200
1B
#750500
1w
#752200
1H
#755600
1S
0O
1=
1P
#757000
1@
1>
1R
#757600
0=
#759000
0>
#798000
0M
1"
#800000
0"
#806300
0U
0W
13
0L
#808300
03
#813400
0Y
0[
1'
1%
0T
0V
#814000
0]
0_
1(
0X
#814200
0e
0g
1&
0Z
#815400
0'
0%
#816000
0(
#816200
0&
#821100
0c
0a
16
14
0\
0^
#821300
0i
0k
1:
18
0d
0f
#821800
0@
0C
0I
1;
15
0h
0`
#822400
1O
0Q
19
0j
#823100
06
04
#823300
0:
08
#823800
0;
05
#824400
09
#824700
0x
17
0b
#826700
07
#830200
0B
#830500
0w
#832200
0H
#835600
0S
0O
1=
0P
#837000
1@
1>
0R
#837600
0=
#839000
0>
#878000
1M
1"
#880000
0"
#886300
1U
1W
13
1L
#888300
03
#893400
1Y
1[
1'
1%
1T
1V
#894000
1]
1_
1(
1X
#894200
1e
1g
1&
1Z
#895400
0'
0%
#896000
0(
#896200
0&
#901100
1c
1a
16
14
1\
1^
#901300
1i
1k
1:
18
1d
1f
#901800
0@
1C
1I
1;
15
1h
1`
#902400
1O
1Q
19
1j
#903100
06
04
#903300
0:
08
#903800
0;
05
#904400
09
#904700
1x
17
1b
#906700
07
#910200
1B
#910500
1w
#912200
1H
#915600
1S
0O
1=
1P
#917000
1@
1>
1R
#917600
0=
#919000
0>
#958000
0M
1"
#960000
0"
#966300
0U
0W
13
0L
#968300
03
#973400
0Y
0[
1'
1%
0T
0V
#974000
0]
0_
1(
0X
#974200
0e
0g
1&
0Z
#975400
0'
0%
#976000
0(
#976200
0&
#981100
0c
0a
16
14
0\
0^
#981300
0i
0k
1:
18
0d
0f
#981800
0@
0C
0I
1;
15
0h
0`
#982400
1O
0Q
19
0j
#983100
06
04
#983300
0:
08
#983800
0;
05
#984400
09
#984700
0x
17
0b
#986700
07
#990200
0B
#990500
0w
#992200
0H
#995600
0S
0O
1=
0P
#997000
1@
1>
0R
#997600
0=
#999000
0>
#1038000
1M
1"
#1040000
0"
#1046300
1U
1W
13
1L
#1048300
03
#1053400
1Y
1[
1'
1%
1T
1V
#1054000
1]
1_
1(
1X
#1054200
1e
1g
1&
1Z
#1055400
0'
0%
#1056000
0(
#1056200
0&
#1061100
1c
1a
16
14
1\
1^
#1061300
1i
1k
1:
18
1d
1f
#1061800
0@
1C
1I
1;
15
1h
1`
#1062400
1O
1Q
19
1j
#1063100
06
04
#1063300
0:
08
#1063800
0;
05
#1064400
09
#1064700
1x
17
1b
#1066700
07
#1070200
1B
#1070500
1w
#1072200
1H
#1075600
1S
0O
1=
1P
#1077000
1@
1>
1R
#1077600
0=
#1079000
0>
#1118000
0M
1"
#1120000
0"
#1126300
0U
0W
13
0L
#1128300
03
#1133400
0Y
0[
1'
1%
0T
0V
#1134000
0]
0_
1(
0X
#1134200
0e
0g
1&
0Z
#1135400
0'
0%
#1136000
0(
#1136200
0&
#1141100
0c
0a
16
14
0\
0^
#1141300
0i
0k
1:
18
0d
0f
#1141800
0@
0C
0I
1;
15
0h
0`
#1142400
1O
0Q
19
0j
#1143100
06
04
#1143300
0:
08
#1143800
0;
05
#1144400
09
#1144700
0x
17
0b
#1146700
07
#1150200
0B
#1150500
0w
#1152200
0H
#1155600
0S
0O
1=
0P
#1157000
1@
1>
0R
#1157600
0=
#1159000
0>
#1198000
1M
1"
#1200000
0"
#1206300
1U
1W
13
1L
#1208300
03
#1213400
1Y
1[
1'
1%
1T
1V
#1214000
1]
1_
1(
1X
#1214200
1e
1g
1&
1Z
#1215400
0'
0%
#1216000
0(
#1216200
0&
#1221100
1c
1a
16
14
1\
1^
#1221300
1i
1k
1:
18
1d
1f
#1221800
0@
1C
1I
1;
15
1h
1`
#1222400
1O
1Q
19
1j
#1223100
06
04
#1223300
0:
08
#1223800
0;
05
#1224400
09
#1224700
1x
17
1b
#1226700
07
#1230200
1B
#1230500
1w
#1232200
1H
#1235600
1S
0O
1=
1P
#1237000
1@
1>
1R
#1237600
0=
#1239000
0>
#1278000
0M
1"
#1280000
0"
#1286300
0U
0W
13
0L
#1288300
03
#1293400
0Y
0[
1'
1%
0T
0V
#1294000
0]
0_
1(
0X
#1294200
0e
0g
1&
0Z
#1295400
0'
0%
#1296000
0(
#1296200
0&
#1301100
0c
0a
16
14
0\
0^
#1301300
0i
0k
1:
18
0d
0f
#1301800
0@
0C
0I
1;
15
0h
0`
#1302400
1O
0Q
19
0j
#1303100
06
04
#1303300
0:
08
#1303800
0;
05
#1304400
09
#1304700
0x
17
0b
#1306700
07
#1310200
0B
#1310500
0w
#1312200
0H
#1315600
0S
0O
1=
0P
#1317000
1@
1>
0R
#1317600
0=
#1319000
0>
#1358000
1M
1"
#1360000
0"
#1366300
1U
1W
13
1L
#1368300
03
#1373400
1Y
1[
1'
1%
1T
1V
#1374000
1]
1_
1(
1X
#1374200
1e
1g
1&
1Z
#1375400
0'
0%
#1376000
0(
#1376200
0&
#1381100
1c
1a
16
14
1\
1^
#1381300
1i
1k
1:
18
1d
1f
#1381800
0@
1C
1I
1;
15
1h
1`
#1382400
1O
1Q
19
1j
#1383100
06
04
#1383300
0:
08
#1383800
0;
05
#1384400
09
#1384700
1x
17
1b
#1386700
07
#1390200
1B
#1390500
1w
#1392200
1H
#1395600
1S
0O
1=
1P
#1397000
1@
1>
1R
#1397600
0=
#1399000
0>
#1438000
0M
1"
#1440000
0"
#1446300
0U
0W
13
0L
#1448300
03
#1453400
0Y
0[
1'
1%
0T
0V
#1454000
0]
0_
1(
0X
#1454200
0e
0g
1&
0Z
#1455400
0'
0%
#1456000
0(
#1456200
0&
#1461100
0c
0a
16
14
0\
0^
#1461300
0i
0k
1:
18
0d
0f
#1461800
0@
0C
0I
1;
15
0h
0`
#1462400
1O
0Q
19
0j
#1463100
06
04
#1463300
0:
08
#1463800
0;
05
#1464400
09
#1464700
0x
17
0b
#1466700
07
#1470200
0B
#1470500
0w
#1472200
0H
#1475600
0S
0O
1=
0P
#1477000
1@
1>
0R
#1477600
0=
#1479000
0>
#1518000
1M
1"
#1520000
0"
#1526300
1U
1W
13
1L
#1528300
03
#1533400
1Y
1[
1'
1%
1T
1V
#1534000
1]
1_
1(
1X
#1534200
1e
1g
1&
1Z
#1535400
0'
0%
#1536000
0(
#1536200
0&
#1541100
1c
1a
16
14
1\
1^
#1541300
1i
1k
1:
18
1d
1f
#1541800
0@
1C
1I
1;
15
1h
1`
#1542400
1O
1Q
19
1j
#1543100
06
04
#1543300
0:
08
#1543800
0;
05
#1544400
09
#1544700
1x
17
1b
#1546700
07
#1550200
1B
#1550500
1w
#1552200
1H
#1555600
1S
0O
1=
1P
#1557000
1@
1>
1R
#1557600
0=
#1559000
0>
#1598000
0M
1"
#1600000
0"
#1606300
0U
0W
13
0L
#1608300
03
#1613400
0Y
0[
1'
1%
0T
0V
#1614000
0]
0_
1(
0X
#1614200
0e
0g
1&
0Z
#1615400
0'
0%
#1616000
0(
#1616200
0&
#1621100
0c
0a
16
14
0\
0^
#1621300
0i
0k
1:
18
0d
0f
#1621800
0@
0C
0I
1;
15
0h
0`
#1622400
1O
0Q
19
0j
#1623100
06
04
#1623300
0:
08
#1623800
0;
05
#1624400
09
#1624700
0x
17
0b
#1626700
07
#1630200
0B
#1630500
0w
#1632200
0H
#1635600
0S
0O
1=
0P
#1637000
1@
1>
0R
#1637600
0=
#1639000
0>
#1640000
1~
1$
#1642000
0$
#1651900
1N
1.
1}
#1653900
0.
#1680000
1M
1"
#1682000
0"
#1688300
1U
1W
13
1L
#1690300
03
#1695400
1Y
1[
1'
1%
1T
1V
#1696000
1]
1_
1(
1X
#1696200
1e
1g
1&
1Z
#1697400
0'
0%
#1698000
0(
#1698200
0&
#1703100
1c
1a
16
14
1\
1^
#1703300
1i
1k
1:
18
1d
1f
#1703800
0@
1C
1I
1;
15
1h
1`
#1704400
0N
1Q
19
1j
#1705100
06
04
#1705300
0:
08
#1705800
0;
05
#1706400
09
#1706700
1x
17
1b
#1708700
07
#1712200
1B
#1712500
1w
#1714200
1H
#1717600
1P
#1720000
1|
1#
#1722000
0#
#1731500
1u
11
1{
#1733500
01
#1760000
0M
1"
#1762000
0"
#1768300
0U
0W
13
0L
#1770300
03
#1775400
0Y
0[
1'
1%
0T
0V
#1776000
0]
0_
1(
0X
#1776200
0e
0g
1&
0Z
#1777400
0'
0%
#1778000
0(
#1778200
0&
#1783100
0c
0a
16
14
0\
0^
#1783300
0i
0k
1:
18
0d
0f
#1783800
0C
0I
1;
15
0h
0`
#1784400
1O
0Q
19
0j
#1785100
06
04
#1785300
0:
08
#1785800
0;
05
#1786400
09
#1786700
0u
1v
0x
17
0b
#1788700
07
#1792200
0B
#1792500
1z
0v
12
0w
#1794200
0H
#1794500
02
#1796600
1?
1<
1y
#1797600
1S
0O
1=
0P
#1798600
0<
#1799000
1@
1>
1R
#1799600
0=
#1800000
0~
1$
#1801000
0>
#1802000
0$
#1811900
1N
1.
0}
#1813900
0.
#1840000
1M
1"
#1842000
0"
#1848300
1U
1W
13
1L
#1850300
03
#1855400
1Y
1[
1'
1%
1T
1V
#1856000
1]
1_
1(
1X
#1856200
1e
1g
1&
1Z
#1857400
0'
0%
#1858000
0(
#1858200
0&
#1863100
1c
1a
16
14
1\
1^
#1863300
1i
1k
1:
18
1d
1f
#1863800
0@
0?
1A
1C
1I
1;
15
1h
1`
#1864400
0N
1Q
19
1j
#1865100
06
04
#1865300
0:
08
#1865800
0;
05
#1866400
09
#1866700
1x
17
1b
#1868700
07
#1872200
1E
0A
1/
1B
#1872500
1w
#1873100
1F
10
1D
#1874200
0/
1H
#1875100
00
#1877600
1P
#1880000
1~
0|
1$
1#
#1882000
0$
0#
#1891500
1u
11
0{
#1891900
1N
1.
1}
#1893500
01
#1893900
0.
#1920000
0M
1"
#1922000
0"
#1928300
0U
0W
13
0L
#1930300
03
#1935400
0Y
0[
1'
1%
0T
0V
#1936000
0]
0_
1(
0X
#1936200
0e
0g
1&
0Z
#1937400
0'
0%
#1938000
0(
#1938200
0&
#1943100
0c
0a
16
14
0\
0^
#1943300
0i
0k
1:
18
0d
0f
#1943800
0F
1G
0C
0I
1;
15
0h
0`
#1944400
0N
0Q
19
0j
#1945100
06
04
#1945300
0:
08
#1945800
0;
05
#1946400
09
#1946700
0u
1v
0x
17
0b
#1948700
07
#1952200
0B
#1952500
0z
0v
12
0w
#1954200
1K
0G
1)
0H
#1954500
02
#1956200
0)
#1956600
1?
1<
0y
#1957600
1m
1o
1*
1J
0P
#1958600
0<
#1959600
0*
#1960000
0~
1$
#1962000
0$
#1964700
1q
1s
1,
1+
1l
1n
#1966700
0,
0+
#1968400
1!
1r
#1970200
1t
1-
1p
#1970400
0!
#1971900
1N
1.
0}
#1972200
0-
#1973900
0.
#2000000
1M
1"
#2002000
0"
#2008300
1U
1W
13
1L
#2010300
03
#2015400
1Y
1[
1'
1%
1T
1V
#2016000
1]
1_
1(
1X
#2016200
1e
1g
1&
1Z
#2017400
0'
0%
#2018000
0(
#2018200
0&
#2023100
1c
1a
16
14
1\
1^
#2023300
1i
1k
1:
18
1d
1f
#2023800
0?
1C
1I
1;
15
1h
1`
#2024400
0N
1Q
19
1j
#2025100
06
04
#2025300
0:
08
#2025800
0;
05
#2026400
09
#2026700
0t
1v
1x
17
1b
#2028700
07
#2032200
1B
#2032500
1z
0v
12
1w
#2034200
1H
#2034500
02
#2036600
1?
1<
1y
#2037600
1P
#2038600
0<
#2040000
1~
1|
1$
1#
#2042000
0$
0#
#2051500
1u
11
1{
#2051900
1N
1.
1}
#2053500
01
#2053900
0.
#2080000
0M
1"
#2082000
0"
#2088300
0U
0W
13
0L
#2090300
03
#2095400
0Y
0[
1'
1%
0T
0V
#2096000
0]
0_
1(
0X
#2096200
0e
0g
1&
0Z
#2097400
0'
0%
#2098000
0(
#2098200
0&
#2103100
0c
0a
16
14
0\
0^
#2103300
0i
0k
1:
18
0d
0f
#2103800
0?
0C
0I
1;
15
0h
0`
#2104400
0N
0Q
19
0j
#2105100
06
04
#2105300
0:
08
#2105800
0;
05
#2106400
09
#2106700
0u
1v
0x
17
0b
#2108700
07
#2112200
0B
#2112500
0z
0v
12
0w
#2114200
0H
#2114500
02
#2116600
1?
1<
0y
#2117600
0P
#2118600
0<
#2120000
0~
1$
#2122000
0$
#2131900
1N
1.
0}
#2133900
0.
#2160000
1M
1"
#2162000
0"
#2168300
1U
1W
13
1L
#2170300
03
#2175400
1Y
1[
1'
1%
1T
1V
#2176000
1]
1_
1(
1X
#2176200
1e
1g
1&
1Z
#2177400
0'
0%
#2178000
0(
#2178200
0&
#2183100
1c
1a
16
14
1\
1^
#2183300
1i
1k
1:
18
1d
1f
#2183800
0?
1C
1I
1;
15
1h
1`
#2184400
0N
1Q
19
1j
#2185100
06
04
#2185300
0:
08
#2185800
0;
05
#2186400
09
#2186700
1x
17
1b
#2188700
07
#2192200
1B
#2192500
1w
#2194200
1H
#2197600
1P
#2200000
1~
1$
#2202000
0$
#2211900
1N
1.
1}
#2213900
0.
#2240000
0M
1"
#2242000
0"
#2248300
0U
0W
13
0L
#2250300
03
#2255400
0Y
0[
1'
1%
0T
0V
#2256000
0]
0_
1(
0X
#2256200
0e
0g
1&
0Z
#2257400
0'
0%
#2258000
0(
#2258200
0&
#2263100
0c
0a
16
14
0\
0^
#2263300
0i
0k
1:
18
0d
0f
#2263800
0C
0I
1;
15
0h
0`
#2264400
0N
0Q
19
0j
#2265100
06
04
#2265300
0:
08
#2265800
0;
05
#2266400
09
#2266700
0x
17
0b
